{
  "Timestamp": "2017-04-11T11:11:31.5213451+07:00",
  "Level": "Information",
  "MessageTemplate": "{HostingRequestStarting:l}",
  "Properties": {
    "Protocol": "HTTP/1.1",
    "Method": "GET",
    "ContentType": null,
    "ContentLength": null,
    "Scheme": "http",
    "Host": "localhost:5000",
    "PathBase": "",
    "Path": "/",
    "QueryString": "",
    "HostingRequestStarting": "Request starting HTTP/1.1 GET http://localhost:5000/  ",
    "EventId": {
      "Id": 1
    }  
  }
}